%YAML 1.1
%TAG !u! tag:unity3d.com,2011:
--- !u!74 &7400000
AnimationClip:
  m_ObjectHideFlags: 0
  m_CorrespondingSourceObject: {fileID: 0}
  m_PrefabInstance: {fileID: 0}
  m_PrefabAsset: {fileID: 0}
  m_Name: Loading
  serializedVersion: 6
  m_Legacy: 0
  m_Compressed: 0
  m_UseHighQualityCurve: 1
  m_RotationCurves: []
  m_CompressedRotationCurves: []
  m_EulerCurves: []
  m_PositionCurves: []
  m_ScaleCurves: []
  m_FloatCurves: []
  m_PPtrCurves:
  - curve:
    - time: 0.016666668
      value: {fileID: 21300000, guid: 2c6ee2f91bf1243b4b63b71faa4c7ad6, type: 3}
    - time: 0.05
      value: {fileID: 21300000, guid: 2cae6702e72e14cf89495d8aeb8c671d, type: 3}
    - time: 0.083333336
      value: {fileID: 21300000, guid: 37b657cdfc1274602a92c6c1be8bbb00, type: 3}
    - time: 0.11666667
      value: {fileID: 21300000, guid: 81c99988c1c0d491dbef2936c15a9ca2, type: 3}
    - time: 0.15
      value: {fileID: 21300000, guid: 8fa87df0b3e1f477898200a5df6d7be0, type: 3}
    - time: 0.18333334
      value: {fileID: 21300000, guid: ed16c6cb9687f4035b6c2aed95ea756b, type: 3}
    - time: 0.21666667
      value: {fileID: 21300000, guid: 9fd0ddc6a63c4425aa45867776aab040, type: 3}
    - time: 0.26666668
      value: {fileID: 21300000, guid: 1dcb99f842c53411697953748824b542, type: 3}
    - time: 0.3
      value: {fileID: 21300000, guid: 0273de0ce3c4044c98674c7257709961, type: 3}
    - time: 0.33333334
      value: {fileID: 21300000, guid: b1a22906184494fadae62e329a1e5ccd, type: 3}
    - time: 0.36666667
      value: {fileID: 21300000, guid: 72e2fbc1cc91445da9e857ab436c627d, type: 3}
    - time: 0.4
      value: {fileID: 21300000, guid: 41d353e5700ed4742aaa899cafc82bcf, type: 3}
    - time: 0.43333334
      value: {fileID: 21300000, guid: 4a26e65fb5959448ab12d61a0a2adc28, type: 3}
    - time: 0.46666667
      value: {fileID: 21300000, guid: 1f56efe2f102943adb2059df0ebde5fb, type: 3}
    - time: 0.5
      value: {fileID: 21300000, guid: 7026acb4e44f84a078cc5bf878829004, type: 3}
    - time: 0.53333336
      value: {fileID: 21300000, guid: 4af9fae80b99f4aa6a2a4eb8e05cd717, type: 3}
    - time: 0.56666666
      value: {fileID: 21300000, guid: f08d2baa3b001445789399303bc4c503, type: 3}
    - time: 0.6
      value: {fileID: 21300000, guid: 04c9726b3178b409d9e2dd2c080119d1, type: 3}
    - time: 0.6333333
      value: {fileID: 21300000, guid: 954fd4ac776524fa1861a6165dc631f2, type: 3}
    - time: 0.6666667
      value: {fileID: 21300000, guid: 1a99757fb8b8e4e908c0f729ed7fd45d, type: 3}
    - time: 0.7
      value: {fileID: 21300000, guid: 5f55f982acecc4da8b96aae847470e11, type: 3}
    - time: 0.73333335
      value: {fileID: 21300000, guid: 5cad4089cdce64612994f66e1d804cfc, type: 3}
    - time: 0.78333336
      value: {fileID: 21300000, guid: a0b3ecc7aa0c443a1b29c109863dd492, type: 3}
    - time: 0.81666666
      value: {fileID: 21300000, guid: 3d7e3238fb7734760946793a1ddf5f0a, type: 3}
    - time: 0.85
      value: {fileID: 21300000, guid: caf85d8f9a6d84b55be0fd5d597e1025, type: 3}
    - time: 0.8833333
      value: {fileID: 21300000, guid: 92c84c0a84257412eaf4f8095ad4256b, type: 3}
    - time: 0.9166667
      value: {fileID: 21300000, guid: 6820cb4d08b8f4a0ca8c86738a537869, type: 3}
    - time: 0.95
      value: {fileID: 21300000, guid: 27eca5da31959471ebc3515f9ec1c4e5, type: 3}
    - time: 0.98333335
      value: {fileID: 21300000, guid: 44bee606ff874428ab14db6355887f00, type: 3}
    attribute: m_Sprite
    path: 
    classID: 114
    script: {fileID: -765806418, guid: f70555f144d8491a825f0804e09c671c, type: 3}
  m_SampleRate: 60
  m_WrapMode: 0
  m_Bounds:
    m_Center: {x: 0, y: 0, z: 0}
    m_Extent: {x: 0, y: 0, z: 0}
  m_ClipBindingConstant:
    genericBindings:
    - serializedVersion: 2
      path: 0
      attribute: 2015549526
      script: {fileID: -765806418, guid: f70555f144d8491a825f0804e09c671c, type: 3}
      typeID: 114
      customType: 0
      isPPtrCurve: 1
    pptrCurveMapping:
    - {fileID: 21300000, guid: 2c6ee2f91bf1243b4b63b71faa4c7ad6, type: 3}
    - {fileID: 21300000, guid: 2cae6702e72e14cf89495d8aeb8c671d, type: 3}
    - {fileID: 21300000, guid: 37b657cdfc1274602a92c6c1be8bbb00, type: 3}
    - {fileID: 21300000, guid: 81c99988c1c0d491dbef2936c15a9ca2, type: 3}
    - {fileID: 21300000, guid: 8fa87df0b3e1f477898200a5df6d7be0, type: 3}
    - {fileID: 21300000, guid: ed16c6cb9687f4035b6c2aed95ea756b, type: 3}
    - {fileID: 21300000, guid: 9fd0ddc6a63c4425aa45867776aab040, type: 3}
    - {fileID: 21300000, guid: 1dcb99f842c53411697953748824b542, type: 3}
    - {fileID: 21300000, guid: 0273de0ce3c4044c98674c7257709961, type: 3}
    - {fileID: 21300000, guid: b1a22906184494fadae62e329a1e5ccd, type: 3}
    - {fileID: 21300000, guid: 72e2fbc1cc91445da9e857ab436c627d, type: 3}
    - {fileID: 21300000, guid: 41d353e5700ed4742aaa899cafc82bcf, type: 3}
    - {fileID: 21300000, guid: 4a26e65fb5959448ab12d61a0a2adc28, type: 3}
    - {fileID: 21300000, guid: 1f56efe2f102943adb2059df0ebde5fb, type: 3}
    - {fileID: 21300000, guid: 7026acb4e44f84a078cc5bf878829004, type: 3}
    - {fileID: 21300000, guid: 4af9fae80b99f4aa6a2a4eb8e05cd717, type: 3}
    - {fileID: 21300000, guid: f08d2baa3b001445789399303bc4c503, type: 3}
    - {fileID: 21300000, guid: 04c9726b3178b409d9e2dd2c080119d1, type: 3}
    - {fileID: 21300000, guid: 954fd4ac776524fa1861a6165dc631f2, type: 3}
    - {fileID: 21300000, guid: 1a99757fb8b8e4e908c0f729ed7fd45d, type: 3}
    - {fileID: 21300000, guid: 5f55f982acecc4da8b96aae847470e11, type: 3}
    - {fileID: 21300000, guid: 5cad4089cdce64612994f66e1d804cfc, type: 3}
    - {fileID: 21300000, guid: a0b3ecc7aa0c443a1b29c109863dd492, type: 3}
    - {fileID: 21300000, guid: 3d7e3238fb7734760946793a1ddf5f0a, type: 3}
    - {fileID: 21300000, guid: caf85d8f9a6d84b55be0fd5d597e1025, type: 3}
    - {fileID: 21300000, guid: 92c84c0a84257412eaf4f8095ad4256b, type: 3}
    - {fileID: 21300000, guid: 6820cb4d08b8f4a0ca8c86738a537869, type: 3}
    - {fileID: 21300000, guid: 27eca5da31959471ebc3515f9ec1c4e5, type: 3}
    - {fileID: 21300000, guid: 44bee606ff874428ab14db6355887f00, type: 3}
  m_AnimationClipSettings:
    serializedVersion: 2
    m_AdditiveReferencePoseClip: {fileID: 0}
    m_AdditiveReferencePoseTime: 0
    m_StartTime: 0
    m_StopTime: 1
    m_OrientationOffsetY: 0
    m_Level: 0
    m_CycleOffset: 0
    m_HasAdditiveReferencePose: 0
    m_LoopTime: 1
    m_LoopBlend: 0
    m_LoopBlendOrientation: 0
    m_LoopBlendPositionY: 0
    m_LoopBlendPositionXZ: 0
    m_KeepOriginalOrientation: 0
    m_KeepOriginalPositionY: 1
    m_KeepOriginalPositionXZ: 0
    m_HeightFromFeet: 0
    m_Mirror: 0
  m_EditorCurves: []
  m_EulerEditorCurves: []
  m_HasGenericRootTransform: 0
  m_HasMotionFloatCurves: 0
  m_Events: []
