%YAML 1.1
%TAG !u! tag:unity3d.com,2011:
--- !u!1045 &1
EditorBuildSettings:
  m_ObjectHideFlags: 0
  serializedVersion: 2
  m_Scenes:
  - enabled: 0
    path: Assets/Scenes/Main.unity
    guid: 43947789107714065bcb3d04a9810178
  - enabled: 1
    path: Assets/Scenes/Menus.unity
    guid: 97751619fb84e40909719adacf5f3ad8
  m_configObjects: {}
